%YAML 1.1
%TAG !u! tag:unity3d.com,2011:
--- !u!114 &11400000
MonoBehaviour:
  m_ObjectHideFlags: 0
  m_PrefabParentObject: {fileID: 0}
  m_PrefabInternal: {fileID: 0}
  m_GameObject: {fileID: 0}
  m_Enabled: 1
  m_EditorHideFlags: 0
  m_Script: {fileID: 11500000, guid: dafff313d74c1244ca95ffd734c6d731, type: 3}
  m_Name: Grayscale
  m_EditorClassIdentifier: 
  cooldown: 0
  duration: 0
  icon: {fileID: 21300000, guid: 49b611e658efbf443b686a4036f74fe3, type: 3}
  desc: turns grayscale on
  activeAction: 0
  color: {r: 0, g: 0, b: 0, a: 0}
  postProcessMat: {fileID: 2100000, guid: fc638097a4d67694d92d662d6becfaea, type: 2}
