%YAML 1.1
%TAG !u! tag:unity3d.com,2011:
--- !u!114 &11400000
MonoBehaviour:
  m_ObjectHideFlags: 0
  m_PrefabParentObject: {fileID: 0}
  m_PrefabInternal: {fileID: 0}
  m_GameObject: {fileID: 0}
  m_Enabled: 1
  m_EditorHideFlags: 0
  m_Script: {fileID: 11500000, guid: 20a7b5d55823f7c41818519920f0ac59, type: 3}
  m_Name: Holographic
  m_EditorClassIdentifier: 
  icon: {fileID: 21300000, guid: a3983c59ebf804b4abba687bd7c9e92f, type: 3}
  desc: Turns Character holographic
  activeAction: 0
  cooldown: 5
  duration: 10
  mat: {fileID: 2100000, guid: 6b8ebab2e3192c945ba6cadc0f545782, type: 2}
  extraCommand: 0
