%YAML 1.1
%TAG !u! tag:unity3d.com,2011:
--- !u!114 &11400000
MonoBehaviour:
  m_ObjectHideFlags: 0
  m_PrefabParentObject: {fileID: 0}
  m_PrefabInternal: {fileID: 0}
  m_GameObject: {fileID: 0}
  m_Enabled: 1
  m_EditorHideFlags: 0
  m_Script: {fileID: 11500000, guid: 20a7b5d55823f7c41818519920f0ac59, type: 3}
  m_Name: Invisibility
  m_EditorClassIdentifier: 
  cooldown: 2
  duration: 15
  icon: {fileID: 21300000, guid: 827c9cd4a3943534f909ac6473e17288, type: 3}
  desc: Turns Character invisible
  activeAction: 0
  mat: {fileID: 2100000, guid: 236184da95257cb468380f10d75f5e51, type: 2}
